[
    {
        "id": 0,
        "age": "10",
        "height": "152",
        "name": "Tony",
        "gender": "M"
    },
    {
        "id": 1,
        "age": "12",
        "height": "148",
        "name": "Jessica",
        "gender": "F"
    },
    {
        "id": 2,
        "age": "9",
        "height": "135",
        "name": "Andrew",
        "gender": "M"
    },
    {
        "id": 3,
        "age": "10",
        "height": "145",
        "name": "Emily",
        "gender": "F"
    },
    {
        "id": 4,
        "age": "11",
        "height": "141",
        "name": "Richard",
        "gender": "M"
    }
]